<svg width="42" height="32" viewBox="0 0 42 32" fill="none" xmlns="http://www.w3.org/2000/svg">
<path d="M21.4247 31.4061C21.2411 31.3327 20.6536 31.1858 20.1028 30.9655C19.0013 30.5616 17.8997 30.121 16.7982 29.6803C16.6513 29.6069 16.5044 29.4968 16.3575 29.4233C16.5411 29.3866 16.7614 29.3499 16.9083 29.2397C17.4591 28.9093 17.5692 28.5788 17.1653 27.9913C16.6146 27.2202 16.1739 26.339 15.0357 26.2288C14.5216 26.1921 14.1544 25.8249 14.1544 25.2374C14.1544 24.907 14.2279 24.4664 13.6771 24.5398C13.1263 24.5765 13.3834 25.0538 13.3099 25.3476C13.2732 25.4577 13.2365 25.6046 13.1998 25.7148C12.9795 26.2655 12.5021 26.3757 12.0615 26.1921C11.4373 25.9351 10.7397 25.5312 10.8131 24.7234C10.8865 23.6586 10.2623 23.2179 9.52795 22.7773C9.38108 22.6672 9.08733 22.4836 9.08733 22.4836C9.6381 21.4922 9.05061 21.125 8.24281 20.8312C8.20609 20.8312 8.16937 20.5008 8.24281 20.4273C8.94046 19.9133 8.31625 19.3992 8.05922 19.3992C7.2147 19.3625 7.36157 18.8485 7.39829 18.3711C7.43501 18.0407 8.20609 17.6735 7.14126 17.5266C6.59049 17.4532 6.4069 16.7555 6.51705 16.1313C6.59049 15.5805 6.66393 14.993 5.81941 14.9563C5.70925 14.9563 5.56238 14.7727 5.52566 14.6626C5.01161 13.561 4.24052 12.6064 3.57959 11.615C3.24913 11.1376 3.17569 10.5134 2.95538 9.96265C2.03743 10.0728 1.92727 9.08141 1.92727 8.75095C1.92727 7.97986 1.11947 7.6494 1.08275 7.17206C0.972599 6.07052 0.274953 5.04241 0.12808 3.86742C0.0913613 3.50024 -0.275821 2.76587 0.678853 2.76587C0.75229 2.76587 0.825726 2.32526 0.935881 2.10495C1.04604 1.88464 1.15619 1.59089 1.33978 1.55417C2.00071 1.37058 2.66164 1.73776 3.32257 1.15027C3.68975 0.819808 4.57099 1.33386 5.04832 0.672935C5.08504 0.599499 5.34207 0.636217 5.45222 0.709653C6.14987 1.29715 6.77408 0.379189 7.47173 0.672935C8.20609 0.966681 8.94046 1.22371 9.67482 1.51745C9.85841 1.59089 10.2256 1.66433 10.2256 1.66433C10.042 2.94947 11.2537 3.09634 11.8779 3.75727C12.0248 3.90414 12.0982 4.30804 12.0248 4.52835C11.9146 4.96897 11.3639 5.44631 12.3553 5.55646C12.5021 5.55646 11.6209 6.4377 12.6857 6.32754C12.7224 6.32754 12.7959 7.06191 12.906 7.46581C13.0162 7.90643 13.2365 8.34705 13.3099 8.78767C13.3466 9.22828 13.3099 9.6689 13.7505 9.88921C14.6318 10.3298 14.7787 11.2845 14.8888 11.9822C14.999 12.9368 15.9904 13.304 16.0638 14.2587C16.1372 15.0298 16.7614 15.8008 17.2021 16.5352C17.7161 17.343 18.3036 18.0774 18.8544 18.8485C19.4419 19.5828 19.9559 19.6195 20.1395 18.8117C20.47 17.1227 21.9387 16.0212 22.3426 14.3688C22.3793 14.1852 22.7098 14.1118 22.8934 13.9649C23.1137 13.7813 23.4809 13.5978 23.4809 13.4142C23.5176 12.5696 23.9215 11.9454 24.5824 11.5415C25.1699 11.1744 25.0965 10.2564 25.8676 10.1095C25.9043 10.1095 26.0144 9.81578 25.941 9.74234C25.3535 8.97126 25.7574 8.23689 26.4183 8.0533C27.1894 7.83299 26.859 7.75956 26.6019 7.35565C26.3449 6.87832 26.859 6.58457 27.1527 6.36426C29.0621 5.04241 29.062 5.04241 29.98 2.87603C30.0534 2.69244 30.3472 2.54557 30.5308 2.47213C30.7878 2.39869 31.1917 2.58228 31.3753 2.43541C31.669 2.2151 32.0362 1.84792 32.0729 1.51745C32.0729 1.29715 31.9261 1.15027 31.8159 0.966681C31.8526 0.893245 31.9995 0.856526 32.0362 0.78309V0.746372C32.0362 0.709653 32.0729 0.709653 32.0729 0.709653C32.2565 0.599499 32.4768 0.599499 32.6604 0.746372C32.5136 1.18699 33.1745 1.8112 33.6151 1.62761C33.6885 1.59089 33.7253 1.44402 33.7253 1.33386C33.8354 0.452626 34.0557 0.15888 34.3495 0.379189C34.9737 0.893245 35.6713 0.709653 36.3323 0.78309C37.1033 0.856526 37.2135 1.29715 36.7362 1.92136C36.626 2.06823 36.4424 2.25182 36.4057 2.43541C36.369 2.54557 36.5526 2.69244 36.6627 2.83931C37.0666 2.32526 37.4705 2.32526 37.8377 2.83931C37.9111 2.69244 38.058 2.54557 38.0947 2.39869C38.3518 1.44402 38.4619 1.37058 39.0127 1.88464C39.3064 2.17838 39.6002 2.50885 39.9674 2.72916C40.151 2.83931 40.5181 2.83931 40.6283 2.94947C40.8119 3.09634 40.7017 3.31665 40.8119 3.57368C40.8486 3.64711 40.8853 3.68383 40.922 3.72055C41.0689 3.94086 41.0322 4.19789 40.9955 4.45491C40.9955 4.49163 40.9955 4.52835 40.9588 4.56507C40.922 4.60179 40.8853 4.6385 40.8486 4.67522C40.665 4.8221 40.6283 5.07912 40.4447 5.226C40.3345 5.33615 40.0408 5.29943 39.9674 5.48302C39.7471 6.14395 39.1228 6.8416 39.49 7.50253C39.9306 8.27361 39.8572 8.49392 38.976 8.4572C38.9025 8.4572 38.7924 8.42048 38.7557 8.4572C38.6455 8.67751 38.5721 8.89782 38.4619 9.11813C38.6088 9.08141 38.7924 9.11813 38.9025 9.04469C39.4166 8.60407 39.6736 9.04469 39.9306 9.33844C40.0408 9.48531 40.151 9.70562 40.1142 9.88921C40.0775 9.99937 39.8205 10.1462 39.6736 10.183C39.3432 10.2197 38.9393 10.1462 38.6455 10.2564C38.2783 10.3665 37.9479 10.6236 37.6174 10.8439C38.058 11.2111 38.4986 11.2111 38.9025 10.8439C39.0127 10.7705 39.1228 10.6603 39.233 10.6603C39.49 10.6603 39.7838 10.7337 40.0408 10.7705C39.8205 10.9173 39.6002 11.0642 39.3799 11.2111C38.5354 11.7618 37.6908 12.3126 36.883 12.9001C36.7729 12.9735 36.8096 13.2673 36.7729 13.4509C36.9198 13.4142 37.1033 13.4509 37.2135 13.3774C37.4338 13.1939 37.5807 12.9368 37.8377 12.8267C37.9846 12.7532 38.2783 12.8634 38.3885 12.9735C38.4619 13.0837 38.4619 13.4142 38.3518 13.5243C38.1315 13.7446 37.7643 13.8548 37.544 14.0751C37.1401 14.5157 36.7362 14.9563 36.9198 15.7274C37.1768 16.7922 36.2221 17.7102 35.2307 17.4165C34.9737 17.343 34.7901 17.086 34.5331 17.0493C33.9456 16.9758 33.505 17.0493 34.1659 17.7102C33.3581 17.7836 33.3948 18.8117 32.8073 18.9953C31.9261 19.2891 33.3214 19.95 32.587 19.9867C31.8526 20.0602 32.1464 20.5008 32.0362 20.868C31.7425 21.7125 31.4487 21.8226 30.4573 21.6023C30.3105 21.5656 30.0902 21.382 30.0167 21.4555C29.6863 21.7125 29.3925 22.0429 29.0988 22.3367C29.4659 22.4101 29.8699 22.4836 30.237 22.5937C30.4206 22.6304 30.6042 22.7406 30.7878 22.814C30.6042 22.9976 30.4206 23.3648 30.1636 23.4015C29.6128 23.5117 29.0253 23.4015 28.4746 23.475C28.2542 23.5117 28.0707 23.8421 27.8503 24.0257C28.0339 24.1359 28.2175 24.246 28.4378 24.3195C28.6214 24.3562 28.8785 24.3195 29.062 24.3195C29.466 24.3562 29.3925 24.4664 29.2456 24.7968C28.9152 25.6413 28.4378 26.2288 27.4097 26.0452C27.1894 26.0085 26.9691 25.9718 26.7855 26.0452C26.6386 26.1187 26.4918 26.339 26.4918 26.4859C26.4918 26.6327 26.6754 26.8163 26.859 26.853C27.0425 26.9265 27.2996 26.853 27.4832 26.8898C27.5199 26.8898 27.5933 27.2202 27.5566 27.2569C27.373 27.4405 27.116 27.5507 26.8957 27.6976C26.6019 27.9546 26.2347 28.1749 26.0879 28.5054C25.3902 30.121 23.591 31.4428 21.4247 31.4061ZM16.5778 28.0647C16.1372 27.4038 15.4029 27.771 14.8888 27.5507C14.4115 27.3304 14.4849 26.3757 13.7505 26.339C13.4935 26.3023 13.1631 26.4124 12.906 26.5593C11.9881 26.9632 11.9146 27.0733 12.6857 27.5874C13.6037 28.2116 14.5951 28.7624 15.6232 29.203C15.9169 29.3132 16.431 28.8358 16.8349 28.6155C16.688 28.2851 16.6513 28.1749 16.5778 28.0647Z" fill="white"/>
</svg>
