<svg width="18" height="18" viewBox="0 0 18 18" fill="none" xmlns="http://www.w3.org/2000/svg">
<path d="M7.84222 0H11.2483C12.8348 0.932727 15.1208 1.49318 15.9602 2.93891C18.1996 6.71891 17.0803 10.7771 15.0275 14.3231C13.1146 17.5893 9.89504 17.5893 6.53559 16.7956C2.47741 15.8629 0.284678 13.8093 0.0506782 10.4506C-0.322413 5.92527 1.87031 2.37927 5.74359 1.02682C6.48895 0.792818 7.14186 0.373091 7.84222 0Z" fill="#ABA628"/>
</svg>
