<svg width="42" height="42" viewBox="0 0 42 42" fill="none" xmlns="http://www.w3.org/2000/svg">
<path d="M19.5124 41.9124C14.4806 40.3338 10.1395 37.3246 5.55176 34.8581C2.93723 33.4275 1.16132 31.3556 0.569354 28.3958C0.372031 27.5078 0.421361 26.5705 0.421361 25.6332C0.421361 24.696 0.3227 23.66 0.569354 22.7721C0.914669 21.5388 -1.30521 19.9602 1.06266 19.0229C0.520023 17.5923 0.766676 16.2111 1.35865 14.8791C1.95061 13.4486 2.54258 12.018 3.28254 10.686C4.0225 9.35411 4.86113 8.02218 5.79841 6.83824C6.68636 5.70363 7.67298 4.66769 8.75825 3.77974C9.94219 2.84245 11.3235 2.10249 12.5567 1.26387C14.0366 0.277255 15.5166 -0.117391 17.3911 0.0306015C20.1537 0.227924 22.9655 -0.117391 25.7774 -0.0187293C27.0106 0.0306015 28.3426 0.326586 29.3292 1.01722C31.7464 2.5958 34.2622 4.27304 36.3341 6.2956C41.3659 11.1793 42.8458 17.1484 41.4645 24.2027C40.2313 30.1717 37.2221 34.4634 32.289 37.4726C30.3158 38.6566 28.1946 39.6432 26.1227 40.7284C25.5307 41.0738 24.9881 41.5177 24.4454 41.9124C22.8175 41.9124 21.1896 41.9124 19.5124 41.9124ZM37.0741 8.81147C37.1234 8.91013 37.1234 9.05812 37.1728 9.10745C37.2221 9.15678 37.3207 9.15678 37.4194 9.15678C37.2714 9.05812 37.1727 8.95946 37.0741 8.81147C36.7781 8.61415 36.5808 8.36749 36.3341 8.12084C36.0875 7.87419 35.8902 7.62753 35.6435 7.38088C35.1009 6.14761 34.2622 5.30899 32.8316 5.21033C32.4863 4.17438 31.7957 3.73041 30.7104 3.77974C30.6611 3.68107 30.6611 3.53308 30.6118 3.43442C30.6118 3.43442 30.4638 3.43442 30.4144 3.43442C30.5624 3.53308 30.6611 3.68107 30.8091 3.77974C31.1544 4.76635 31.9437 5.21033 32.9303 5.21033C33.4729 6.4436 34.3116 7.28222 35.7422 7.38088C35.9888 7.62753 36.1861 7.87419 36.4328 8.12084C36.6301 8.31816 36.8274 8.56482 37.0741 8.81147ZM5.4531 22.2294C5.40376 26.4225 5.50243 26.3732 8.16628 29.2344C11.6688 33.0329 16.3552 34.5128 20.795 36.5847C21.8802 37.078 23.5575 36.6833 24.8401 36.2887C27.7999 35.3021 30.0691 33.2795 31.993 30.7636C32.7823 29.777 33.6703 28.7904 34.7062 28.0505C36.1861 26.9652 37.3701 25.8799 37.3207 23.808C37.2714 22.9201 37.5674 21.8841 38.0114 21.0455C38.8007 19.4176 38.3074 17.9377 37.7154 16.5564C36.5315 13.9419 35.0515 11.5247 32.6837 9.79808C31.1544 8.66348 29.7238 7.47954 28.1452 6.4436C25.58 4.71702 22.7188 3.77974 19.611 3.82907C17.4405 3.8784 15.5166 4.5197 13.9873 6.19694C12.9514 7.33155 11.8661 8.41682 10.7808 9.5021C7.13034 13.0539 5.25577 17.247 5.4531 22.2294Z" fill="#E18B04"/>
<path d="M21.6336 29.9744C20.2523 29.6784 18.9204 29.3824 17.5391 29.1357C12.5074 28.2478 10.5835 22.2788 12.3594 17.6417C13.9873 13.3006 18.4764 10.5381 23.8042 11.6233C25.1361 11.87 26.5173 12.3633 27.7013 13.0539C29.7732 14.3365 29.8718 16.8031 29.9212 18.875C29.9705 21.7855 29.1319 24.6467 27.4053 27.0145C25.9747 28.9878 24.1988 30.2704 21.6336 29.9744Z" fill="#E18B04"/>
</svg>
