<svg width="167" height="8" viewBox="0 0 167 8" fill="none" xmlns="http://www.w3.org/2000/svg">
<path d="M89.9482 7.39749C88.8354 7.39749 87.7225 7.39749 86.5441 7.39749C84.7111 6.54645 82.9435 6.48099 81.1105 7.39749C80.9141 7.39749 80.6523 7.39749 80.4559 7.39749C79.8013 7.39749 79.0811 7.39749 78.4265 7.39749C77.9682 7.39749 77.51 7.39749 77.0517 7.39749C75.9388 6.61192 74.8259 6.61192 73.6476 7.39749C73.1893 7.39749 72.7311 7.39749 72.2728 7.39749C72.0764 7.39749 71.8146 7.39749 71.6182 7.39749C70.5053 7.39749 69.3924 7.39749 68.214 7.39749C67.7558 7.39749 67.2975 7.39749 66.8393 7.39749C65.9228 7.39749 65.0063 7.39749 64.1552 7.39749C63.697 7.39749 63.2387 7.39749 62.7805 7.39749C61.6676 7.39749 60.5547 7.39749 59.3763 7.39749C58.4598 7.39749 57.5433 7.39749 56.6923 7.39749C55.1211 7.39749 53.55 7.39749 51.9788 7.39749C50.1458 6.48099 48.3783 6.54645 46.5453 7.39749C45.4324 7.39749 44.3195 7.39749 43.1411 7.39749C41.7664 6.54645 40.4571 6.54645 39.0823 7.39749C37.2493 7.39749 35.4818 7.39749 33.6488 7.39749C32.9941 7.39749 32.274 7.39749 31.6194 7.39749C30.5065 7.39749 29.3936 7.39749 28.2152 7.39749C27.5606 7.39749 26.8405 7.39749 26.1858 7.39749C25.9894 7.39749 25.7276 7.39749 25.5312 7.39749C24.8765 7.39749 24.1564 7.39749 23.5018 7.39749C22.3889 7.39749 21.276 7.39749 20.0976 7.39749C19.6394 7.39749 19.1811 7.39749 18.7229 7.39749C17.61 7.39749 16.4971 7.39749 15.3187 7.39749C13.9439 6.61192 12.6347 6.54645 11.2599 7.39749C10.6053 7.39749 9.88514 7.39749 9.2305 7.39749C8.77225 7.39749 8.31399 7.39749 7.85574 7.39749C6.48099 7.39749 5.1717 7.39749 3.79694 7.39749C2.68405 5.95727 1.37475 4.45159 0 2.9459C0 2.22579 0 1.44022 0 0.72011C1.44022 0.72011 2.88044 0.72011 4.32066 0.72011C5.62995 0.72011 6.93924 0.72011 8.24853 0.72011C13.1584 0.72011 18.0682 0.523716 22.978 0.851039C24.942 0.981968 26.7095 1.1129 28.4116 0.0654645C28.608 0.0654645 28.8699 0.0654645 29.0662 0.0654645C29.9173 0.261858 30.7683 0.589181 31.6194 0.589181C40.2607 0.654645 48.902 0.654645 57.5433 0.589181C58.3944 0.589181 59.2454 0.261858 60.0964 0.0654645C60.882 0 61.5366 0 62.1913 0C62.1913 0.327323 62.1913 0.654645 62.1913 0.785574C64.9408 0.785574 67.6249 0.785574 70.3089 0.785574H70.2434C70.5708 0.851039 70.9635 0.916503 71.2909 1.04743C71.4873 0.916503 71.6836 0.785574 71.8146 0.654645C77.6409 0.785574 83.5327 0.981968 89.3591 0.981968C98.2622 0.981968 107.1 0.851039 116.003 0.654645C116.985 0.654645 117.967 0.261858 118.949 0.130929C119.145 0.130929 119.407 0.130929 119.604 0.130929C120.586 0.327323 121.568 0.72011 122.484 0.72011C131.715 0.654645 140.814 0.654645 149.914 0.589181C151.092 0.589181 152.336 0.196394 153.514 0C153.711 0 153.973 0 154.169 0C155.675 0.196394 157.246 0.589181 158.751 0.523716C161.763 0.392787 164.512 0.981968 167 2.9459C167 3.92787 167 4.90984 167 5.89181C164.578 6.21913 162.09 6.67738 159.668 6.74285C155.216 6.87377 150.699 6.80831 146.182 6.80831C131.191 6.80831 116.265 6.80831 101.274 6.80831C99.9643 6.80831 98.655 7.13563 97.3457 7.33203C96.4292 7.33203 95.5127 7.33203 94.6617 7.33203C93.0906 6.54645 91.5194 6.61192 89.9482 7.39749Z" fill="#BB4515"/>
</svg>
