<svg width="92" height="11" viewBox="0 0 92 11" fill="none" xmlns="http://www.w3.org/2000/svg">
<path d="M91.2403 7.22184C91.2403 8.44698 91.6916 10.059 91.1113 10.7038C90.5954 11.2841 88.9834 10.8328 87.8873 10.8328C59.2578 10.8328 30.6928 10.8328 2.06338 10.8328C1.80546 9.86555 1.6765 8.83386 1.3541 7.86665C0.967211 7.09288 0.451365 6.44807 0 5.73879C1.41858 3.48196 3.09508 1.74098 5.73879 1.22513C6.12567 1.16065 6.44807 0.451365 6.77048 0C26.0502 0 45.33 0 64.6742 0C65.8993 0.257923 67.06 0.644807 68.2851 0.644807C72.6053 0.709288 76.9255 0.580327 81.2457 0.709288C83.9539 0.773769 88.7255 0.193442 91.1113 1.80546C91.9495 2.32131 90.7889 3.353 89.4993 4.51365C89.1124 4.83606 89.4348 6.19015 89.6927 6.96392C89.6927 7.22184 90.6599 7.15736 91.2403 7.22184Z" fill="#E08A04"/>
</svg>
