<svg width="20" height="30" viewBox="0 0 20 30" fill="none" xmlns="http://www.w3.org/2000/svg">
<path d="M9.67065 4.72935C8.25889 5.43523 6.91771 6.28229 5.43536 6.70582C4.80007 6.847 4.16477 6.70582 3.60007 6.56465C3.31771 5.99994 2.96477 5.43523 2.89418 4.87053C2.68242 3.10582 4.87065 2.18817 6.14124 1.55288C8.61183 0.282293 11.3648 -0.988296 13.6236 1.19994C15.953 3.45876 15.4589 6.35288 13.8354 8.96465C13.6942 9.247 13.6942 9.59994 13.4824 10.3058C17.5765 11.8588 20.2589 14.6823 20.0471 19.4823C19.8354 23.7176 17.6471 26.6117 13.9765 28.2352C10.0236 29.9999 5.92948 31.0588 2.11771 27.8823C1.27065 27.1764 0.21183 26.1176 0.0706535 25.1294C-0.070523 23.8588 0.21183 22.447 1.34124 21.8117C2.25889 21.3176 3.74124 21.3176 4.37654 22.3058C6.49418 25.4117 9.24712 25.1999 11.7177 23.647C13.1295 22.7294 14.6118 20.6823 14.6824 19.0588C14.753 17.7882 12.9883 16.0235 11.6471 15.1058C10.5177 14.2588 8.75301 14.3999 7.34124 13.7646C6.49418 13.4117 5.71771 13.0588 4.72948 13.1294C4.5883 13.1294 4.44712 13.1294 4.37654 13.0588C4.30595 12.9882 4.23536 12.847 4.23536 12.7764C4.09418 12.2823 4.02359 11.7176 4.02359 11.1529C4.09418 9.74112 10.1648 5.57641 10.1648 5.647C10.0236 5.43523 9.81183 5.08229 9.67065 4.72935Z" fill="#EE9303"/>
</svg>
