<svg width="20" height="30" viewBox="0 0 20 30" fill="none" xmlns="http://www.w3.org/2000/svg">
<g clip-path="url(#clip0)">
<path d="M11.2941 0.21163C13.0588 0.282218 14.8235 0.141042 16.5177 0.493983C17.3647 0.635159 18.4941 1.69398 18.5647 2.39987C18.6353 3.17634 17.7177 4.51751 17.0118 4.72928C13.4118 5.57634 9.88236 5.50575 6.28236 5.43516C6.0706 5.43516 5.85883 5.43516 5.78824 5.57634C5.71766 5.71751 5.71766 5.85869 5.71766 5.92928C5.71766 6.9881 5.71766 8.04692 5.71766 9.10575C6.98824 9.03516 8.32942 8.82339 9.60001 8.82339C10.7294 8.82339 11.7882 9.45869 12.8471 9.52928C18.4235 11.3646 19.9059 13.4116 19.9765 19.4116C20.1177 24.8469 18.2824 27.3881 12.9882 29.294C8.4706 30.9175 4.2353 29.8587 1.55295 25.9763C1.12942 25.341 0.423538 22.3763 1.55295 22.2352C0.988244 20.7528 5.01177 21.5999 5.64707 21.741C7.2706 22.1646 8.75295 23.5763 10.3059 23.5763C13.2 23.6469 14.6824 21.1763 14.0471 18.2116C13.5529 15.8116 9.74119 13.694 7.12942 14.3999C6.70589 14.541 6.28236 14.7528 5.85883 14.9646C1.69413 16.6587 -0.423521 15.0352 0.0705968 10.5881C0.211773 9.67045 0.564714 8.75281 0.494126 7.83516C0.211773 0.988101 1.90589 -0.141311 9.52942 -0.000134779C10.0941 -0.000134779 10.6588 0.0704535 11.2941 0.0704535C11.2941 0.141042 11.2941 0.141042 11.2941 0.21163Z" fill="#503C3C"/>
</g>
<defs>
<clipPath id="clip0">
<rect width="19.9765" height="30" fill="white"/>
</clipPath>
</defs>
</svg>
